<?xml version="1.0" encoding="UTF-8"?>
<robot generator="Robot 3.0.4 (Python 3.7.0 on win32)" generated="20180903 22:13:49.400">
<suite id="s1" name="Robot Framework REST" source="C:\Users\petri.ryynanen\git\Robot_Framework_REST\Robot_Framework_REST">
<suite id="s1-s1" name="Tests" source="C:\Users\petri.ryynanen\git\Robot_Framework_REST\Robot_Framework_REST\Tests">
<suite id="s1-s1-s1" name="Get" source="C:\Users\petri.ryynanen\git\Robot_Framework_REST\Robot_Framework_REST\Tests\Get.robot">
<test id="s1-s1-s1-t1" name="Get test">
<kw name="Test run">
<kw name="Create Session" library="RequestsLibrary">
<doc>Create Session: create a HTTP session to a server</doc>
<arguments>
<arg>getSession</arg>
<arg>https://reqres.in</arg>
<arg>verify=true</arg>
</arguments>
<msg timestamp="20180903 22:13:50.155" level="INFO">Creating Session using : alias=getSession, url=https://reqres.in, headers={},                     cookies=None, auth=None, timeout=None, proxies=None, verify=true,                     debug=0 </msg>
<status status="PASS" starttime="20180903 22:13:50.151" endtime="20180903 22:13:50.159"></status>
</kw>
<kw name="Get Request" library="RequestsLibrary">
<doc>Send a GET request on the session object found using the</doc>
<arguments>
<arg>getSession</arg>
<arg>/api/users?page=2</arg>
</arguments>
<assign>
<var>${response}</var>
</assign>
<msg timestamp="20180903 22:13:50.719" level="INFO">Get Request using : alias=getSession, uri=/api/users?page=2, headers=None json=None</msg>
<msg timestamp="20180903 22:13:50.719" level="INFO">${response} = &lt;Response [200]&gt;</msg>
<status status="PASS" starttime="20180903 22:13:50.159" endtime="20180903 22:13:50.723"></status>
</kw>
<kw name="Log" library="BuiltIn">
<doc>Logs the given message with the given level.</doc>
<arguments>
<arg>${response.status_code}</arg>
</arguments>
<msg timestamp="20180903 22:13:50.723" level="INFO">200</msg>
<status status="PASS" starttime="20180903 22:13:50.723" endtime="20180903 22:13:50.727"></status>
</kw>
<kw name="Log" library="BuiltIn">
<doc>Logs the given message with the given level.</doc>
<arguments>
<arg>${response.text}</arg>
</arguments>
<msg timestamp="20180903 22:13:50.727" level="INFO">{"page":2,"per_page":3,"total":12,"total_pages":4,"data":[{"id":4,"first_name":"Eve","last_name":"Holt","avatar":"https://s3.amazonaws.com/uifaces/faces/twitter/marcoramires/128.jpg"},{"id":5,"first_name":"Charles","last_name":"Morris","avatar":"https://s3.amazonaws.com/uifaces/faces/twitter/stephenmoon/128.jpg"},{"id":6,"first_name":"Tracey","last_name":"Ramos","avatar":"https://s3.amazonaws.com/uifaces/faces/twitter/bigmancho/128.jpg"}]}</msg>
<status status="PASS" starttime="20180903 22:13:50.727" endtime="20180903 22:13:50.727"></status>
</kw>
<kw name="Should Be Equal As Strings" library="BuiltIn">
<doc>Fails if objects are unequal after converting them to strings.</doc>
<arguments>
<arg>${response.status_code}</arg>
<arg>200</arg>
</arguments>
<msg timestamp="20180903 22:13:50.731" level="INFO">Argument types are:
&lt;class 'int'&gt;
&lt;type 'unicode'&gt;</msg>
<status status="PASS" starttime="20180903 22:13:50.731" endtime="20180903 22:13:50.731"></status>
</kw>
<kw name="To Json" library="RequestsLibrary">
<doc>Convert a string to a JSON object</doc>
<arguments>
<arg>${response.text}</arg>
<arg>true</arg>
</arguments>
<assign>
<var>${pretty_printed_response}</var>
</assign>
<msg timestamp="20180903 22:13:50.735" level="INFO">To JSON using : content={"page":2,"per_page":3,"total":12,"total_pages":4,"data":[{"id":4,"first_name":"Eve","last_name":"Holt","avatar":"https://s3.amazonaws.com/uifaces/faces/twitter/marcoramires/128.jpg"},{"id":5,"first_name":"Charles","last_name":"Morris","avatar":"https://s3.amazonaws.com/uifaces/faces/twitter/stephenmoon/128.jpg"},{"id":6,"first_name":"Tracey","last_name":"Ramos","avatar":"https://s3.amazonaws.com/uifaces/faces/twitter/bigmancho/128.jpg"}]} </msg>
<msg timestamp="20180903 22:13:50.735" level="INFO">To JSON using : pretty_print=true </msg>
<msg timestamp="20180903 22:13:50.735" level="INFO">${pretty_printed_response} = {
    "data": [
        {
            "avatar": "https://s3.amazonaws.com/uifaces/faces/twitter/marcoramires/128.jpg",
            "first_name": "Eve",
            "id": 4,
            "last_name": "H...</msg>
<status status="PASS" starttime="20180903 22:13:50.731" endtime="20180903 22:13:50.735"></status>
</kw>
<kw name="Create File" library="OperatingSystem">
<doc>Creates a file with the given content and encoding.</doc>
<arguments>
<arg>${save_response_location}Get_response.json</arg>
<arg>${pretty_printed_response}</arg>
</arguments>
<msg timestamp="20180903 22:13:50.747" level="INFO" html="yes">Created file '&lt;a href="file://C:\Users\petri.ryynanen\eclipse-workspace\Robot_Framework_REST\responses\Get_response.json"&gt;C:\Users\petri.ryynanen\eclipse-workspace\Robot_Framework_REST\responses\Get_response.json&lt;/a&gt;'.</msg>
<status status="PASS" starttime="20180903 22:13:50.739" endtime="20180903 22:13:50.747"></status>
</kw>
<kw name="Get Binary File" library="OperatingSystem">
<doc>Returns the contents of a specified file.</doc>
<arguments>
<arg>${expected_location}${expected_response}</arg>
</arguments>
<assign>
<var>${expected_response}</var>
</assign>
<msg timestamp="20180903 22:13:50.751" level="INFO" html="yes">Getting file '&lt;a href="file://C:\Users\petri.ryynanen\eclipse-workspace\Robot_Framework_REST\expected\Get_response.json"&gt;C:\Users\petri.ryynanen\eclipse-workspace\Robot_Framework_REST\expected\Get_response.json&lt;/a&gt;'.</msg>
<msg timestamp="20180903 22:13:50.755" level="INFO">${expected_response} = {"page":2,"per_page":3,"total":12,"total_pages":4,"data":[{"id":4,"first_name":"Eve","last_name":"Holt","avatar":"https://s3.amazonaws.com/uifaces/faces/twitter/marcoramires/128.jpg"},{"id":5,"first_n...</msg>
<status status="PASS" starttime="20180903 22:13:50.751" endtime="20180903 22:13:50.755"></status>
</kw>
<kw name="Get Binary File" library="OperatingSystem">
<doc>Returns the contents of a specified file.</doc>
<arguments>
<arg>${save_response_location}</arg>
</arguments>
<assign>
<var>${saved_response}</var>
</assign>
<msg timestamp="20180903 22:13:50.759" level="INFO" html="yes">Getting file '&lt;a href="file://C:\Users\petri.ryynanen\eclipse-workspace\Robot_Framework_REST\responses"&gt;C:\Users\petri.ryynanen\eclipse-workspace\Robot_Framework_REST\responses&lt;/a&gt;'.</msg>
<msg timestamp="20180903 22:13:50.763" level="FAIL">PermissionError: [Errno 13] Permission denied: 'C:\\Users\\petri.ryynanen\\eclipse-workspace\\Robot_Framework_REST\\responses'</msg>
<status status="FAIL" starttime="20180903 22:13:50.755" endtime="20180903 22:13:50.763"></status>
</kw>
<status status="FAIL" starttime="20180903 22:13:50.139" endtime="20180903 22:13:50.763"></status>
</kw>
<status status="FAIL" starttime="20180903 22:13:50.135" endtime="20180903 22:13:50.767" critical="yes">PermissionError: [Errno 13] Permission denied: 'C:\\Users\\petri.ryynanen\\eclipse-workspace\\Robot_Framework_REST\\responses'</status>
</test>
<status status="FAIL" starttime="20180903 22:13:49.771" endtime="20180903 22:13:50.770"></status>
</suite>
<status status="FAIL" starttime="20180903 22:13:49.764" endtime="20180903 22:13:50.775"></status>
</suite>
<status status="FAIL" starttime="20180903 22:13:49.720" endtime="20180903 22:13:50.779"></status>
</suite>
<statistics>
<total>
<stat pass="0" fail="1">Critical Tests</stat>
<stat pass="0" fail="1">All Tests</stat>
</total>
<tag>
</tag>
<suite>
<stat pass="0" fail="1" id="s1" name="Robot Framework REST">Robot Framework REST</stat>
<stat pass="0" fail="1" id="s1-s1" name="Tests">Robot Framework REST.Tests</stat>
<stat pass="0" fail="1" id="s1-s1-s1" name="Get">Robot Framework REST.Tests.Get</stat>
</suite>
</statistics>
<errors>
</errors>
</robot>
