{
    "data": [
        {
            "avatar": "https://s3.amazonaws.com/uifaces/faces/twitter/marcoramires/128.jpg",
            "first_name": "Eve",
            "id": 4,
            "last_name": "Holt"
        },
        {
            "avatar": "https://s3.amazonaws.com/uifaces/faces/twitter/stephenmoon/128.jpg",
            "first_name": "Charles",
            "id": 5,
            "last_name": "Morris"
        },
        {
            "avatar": "https://s3.amazonaws.com/uifaces/faces/twitter/bigmancho/128.jpg",
            "first_name": "Tracey",
            "id": 6,
            "last_name": "Ramos"
        }
    ],
    "page": 2,
    "per_page": 3,
    "total": 12,
    "total_pages": 4
}